{
    "total": 21, 
    "per_page": 10, 
    "current_page": 2, 
    "last_page": 3, 
    "from": 11, 
    "to": 20, 
    "data": [
        {
            "id": "20", 
            "category_id": "1", 
            "title": "多福多寿", 
            "logolink": "wbsdf", 
            "onejpg": "wbrfds", 
            "twojpg": "bwfsd", 
            "threejpg": "berdfs", 
            "content": "berdfs ", 
            "created_at": "2014-07-29 15:27:00", 
            "updated_at": "2014-07-29 15:27:00", 
            "startplay": "", 
            "download": "", 
            "icon": "img/1.jpg", 
            "imgUrl": "", 
            "goodCount": "", 
            "toptitle": ""
        }, 
        {
            "id": "13", 
            "category_id": "1", 
            "title": "才不是地方被", 
            "logolink": "erwtfbds", 
            "onejpg": "rwebdfs", 
            "twojpg": "werbdsf", 
            "threejpg": "wdefs", 
            "content": "rgew5sfd", 
            "created_at": "2014-07-29 13:07:13", 
            "updated_at": "2014-07-29 13:07:13", 
            "startplay": "", 
            "download": "", 
            "icon": "", 
            "imgUrl": "", 
            "goodCount": "", 
            "toptitle": ""
        }, 
        {
            "id": "12", 
            "category_id": "2", 
            "title": "毒贩夫妇代收代付", 
            "logolink": "RBAEFD", 
            "onejpg": "WRABFDS", 
            "twojpg": "RWABDSV", 
            "threejpg": "RBVFESD", 
            "content": "**RBEFDSCZXBERFSDREhtjfydjydjt**", 
            "created_at": "2014-07-29 12:11:10", 
            "updated_at": "2014-07-29 12:11:10", 
            "startplay": "", 
            "download": "", 
            "icon": "", 
            "imgUrl": "", 
            "goodCount": "", 
            "toptitle": ""
        }, 
        {
            "id": "6", 
            "category_id": "1", 
            "title": "地方不够大方的说法", 
            "logolink": "lkbjrmflk.rtbjgmoibtlkr.n", 
            "onejpg": "op;ljrtmvlktr.jbmoitlkr", 
            "twojpg": "opl;jemboivlkj gmioflk", 
            "threejpg": "ikjbmoilkrjbigolkjm", 
            "content": "opljbrgmoilkbmdoi;lke.rjmoi;ltr", 
            "created_at": "2014-07-26 04:15:34", 
            "updated_at": "2014-07-26 04:15:34", 
            "startplay": "", 
            "download": "", 
            "icon": "", 
            "imgUrl": "", 
            "goodCount": "", 
            "toptitle": ""
        }
    ]
}